…
    ## Warning: `tbl_df()` is deprecated as of dplyr 1.0.0.
    ## Please use `tibble::as_tibble()` instead.
    ## This warning is displayed once every 8 hours.
    ## Call `lifecycle::last_warnings()` to see where this warning was generated.

``` r
result <- df %>%
          group_by(Activity, Subject_ID) %>%
          summarize(across(tBodyAccMEANX:fBodyBodyGyroJerkMagSTD, mean)) %>%
          print
```

    ## `summarise()` regrouping output by 'Activity' (override with `.groups` argument)

    ## # A tibble: 180 x 68
    ## # Groups:   Activity [6]
    ##    Activity Subject_ID tBodyAccMEANX tBodyAccMEANY tBodyAccMEANZ tBodyAccSTDX
    ##    <fct>         <int>         <dbl>         <dbl>         <dbl>        <dbl>
    ##  1 WALKING           1         0.277       -0.0174        -0.111       -0.284
    ##  2 WALKING           2         0.276       -0.0186        -0.106       -0.424
    ##  3 WALKING           3         0.276       -0.0172        -0.113       -0.360
    ##  4 WALKING           4         0.279       -0.0148        -0.111       -0.441
    ##  5 WALKING           5         0.278       -0.0173        -0.108       -0.294
    ##  6 WALKING           6         0.284       -0.0169        -0.110       -0.297
    ##  7 WALKING           7         0.276       -0.0187        -0.111       -0.327
    ##  8 WALKING           8         0.275       -0.0187        -0.107       -0.174
    ##  9 WALKING           9         0.279       -0.0181        -0.111       -0.238
    ## 10 WALKING          10         0.279       -0.0170        -0.109       -0.179
    ## # ... with 170 more rows, and 62 more variables: tBodyAccSTDY <dbl>,
    ## #   tBodyAccSTDZ <dbl>, tGravityAccMEANX <dbl>, tGravityAccMEANY <dbl>,
    ## #   tGravityAccMEANZ <dbl>, tGravityAccSTDX <dbl>, tGravityAccSTDY <dbl>,
    ## #   tGravityAccSTDZ <dbl>, tBodyAccJerkMEANX <dbl>, tBodyAccJerkMEANY <dbl>,
    ## #   tBodyAccJerkMEANZ <dbl>, tBodyAccJerkSTDX <dbl>, tBodyAccJerkSTDY <dbl>,
    ## #   tBodyAccJerkSTDZ <dbl>, tBodyGyroMEANX <dbl>, tBodyGyroMEANY <dbl>,
    ## #   tBodyGyroMEANZ <dbl>, tBodyGyroSTDX <dbl>, tBodyGyroSTDY <dbl>,
    ## #   tBodyGyroSTDZ <dbl>, tBodyGyroJerkMEANX <dbl>, tBodyGyroJerkMEANY <dbl>,
    ## #   tBodyGyroJerkMEANZ <dbl>, tBodyGyroJerkSTDX <dbl>, tBodyGyroJerkSTDY <dbl>,
…
